survey_id,profile_id,point_id,latitude,longitude,elevation,thickness,date,flag,elevation_date,remarks
35,25.9 km,3,63.477474,-146.263135,1339,197,1976-03-21,other,1976-03-21,
35,25.9 km,4,63.477251,-146.263262,1342,199,1976-03-21,other,1976-03-21,
35,25.9 km,4*,63.477251,-146.263262,1342,221,1976-03-21,other,1976-03-21,
35,25.9 km,6,63.475519,-146.264894,1343,283,1976-03-21,other,1976-03-21,
35,25.9 km,7,63.475135,-146.265225,1343,301,1976-03-21,other,1976-03-21,
35,25.9 km,8,63.474769,-146.265556,1344,308,1976-03-21,other,1976-03-21,
35,25.9 km,10,63.474368,-146.265908,1345,346,1976-03-21,other,1976-03-21,
35,25.9 km,12,63.473591,-146.266551,1345,762,1976-03-21,other,1976-03-21,
35,25.9 km,15,63.473341,-146.266778,1344,411,1976-03-22,other,1976-03-22,
35,25.9 km,18,63.472725,-146.267316,1345,453,1976-03-22,other,1976-03-22,
35,25.9 km,19,63.472037,-146.267917,1347,446,1976-03-22,other,1976-03-22,
35,25.9 km,19*,63.472037,-146.267917,1347,462,1976-03-22,other,1976-03-22,
35,25.9 km,22,63.471131,-146.267921,1348,512,1976-03-22,other,1976-03-22,
35,25.9 km,23,63.469871,-146.267193,1349,528,1976-03-22,other,1976-03-22,
35,25.9 km,24,63.469529,-146.266901,1349,447,1976-03-22,other,1976-03-22,
35,25.9 km,25,63.468625,-146.267387,1349,560,1976-03-22,other,1976-03-22,
35,25.9 km,26,63.468331,-146.267676,1347,565,1976-03-22,other,1976-03-22,
35,25.9 km,27,63.467778,-146.268292,1346,565,1976-03-22,other,1976-03-22,
35,25.9 km,29,63.467422,-146.268803,1343,436,1976-03-22,other,1976-03-22,
35,25.9 km,31,63.460363,-146.277435,1354,73,1976-03-23,other,1976-03-23,
35,25.9 km,33,63.463217,-146.275995,1358,114,1976-03-23,other,1976-03-23,
35,25.9 km,36,63.463144,-146.275636,1357,176,1976-03-23,other,1976-03-23,
35,25.9 km,38,63.464081,-146.274829,1355,234,1976-03-23,other,1976-03-23,
35,25.9 km,41,63.464858,-146.274127,1349,292,1976-03-23,other,1976-03-23,
35,34.4 km,43,63.456475,-146.10198,1097,338,1976-03-23,other,1976-03-23,
35,34.4 km,44,63.455419,-146.102435,1097,303,1976-03-23,other,1976-03-23,
35,34.4 km,44*,63.455419,-146.102435,1097,338,1976-03-23,other,1976-03-23,
35,34.4 km,46,63.454632,-146.102782,1097,407,1976-03-23,other,1976-03-23,
35,34.4 km,47,63.453809,-146.10315,1093,473,1976-03-23,other,1976-03-23,
35,34.4 km,48,63.452852,-146.103602,1091,467,1976-03-23,other,1976-03-23,
35,34.4 km,49,63.451949,-146.104012,1094,424,1976-03-23,other,1976-03-23,
35,34.4 km,50,63.451063,-146.104402,1099,243,1976-03-23,other,1976-03-23,
35,34.4 km,51,63.450213,-146.104771,1105,352,1976-03-23,other,1976-03-23,
35,15 km,S5,63.47117,-146.491582,1719,173,1990-05-23,other,1990-05-23,
35,15 km,S4,63.473833,-146.491391,1705,392,1990-05-23,other,1990-05-23,
35,15 km,S3,63.475976,-146.491229,1704,569,1990-05-23,other,1990-05-23,
35,15 km,S2,63.478424,-146.490861,1704,561,1990-05-23,other,1990-05-23,
35,15 km,S1,63.480728,-146.490496,1703,443,1990-05-23,other,1990-05-23,
35,15 km,WE,63.483426,-146.489902,1700,342,1990-05-23,other,1990-05-23,
35,15 km,N1,63.485543,-146.489821,1697,266,1990-05-23,other,1990-05-23,
35,15 km,N2,63.487121,-146.48975,1694,181,1990-05-23,other,1990-05-23,
35,15 km,N3,63.488619,-146.489701,1690,139,1990-05-23,other,1990-05-23,
35,14 km,S2,63.482954,-146.50494,,603,1990-05-23,other,,latitude/longitude: Surveyed short distances with a Brunton compass and tape measure from stakes located accurately by standard surveys (±10 to 20 m)
35,14 km,S1,63.48116,-146.504974,,535,1990-05-23,other,,latitude/longitude: Surveyed short distances with a Brunton compass and tape measure from stakes located accurately by standard surveys (±10 to 20 m)
35,14 km,14 km site,63.479366,-146.505007,1725,468,1990-05-23,other,1990-05-23,
35,14 km,N1,63.477751,-146.505038,,426,1990-05-23,other,,latitude/longitude: Surveyed short distances with a Brunton compass and tape measure from stakes located accurately by standard surveys (±10 to 20 m)
35,14 km,N2,63.476137,-146.505068,,274,1990-05-23,other,,latitude/longitude: Surveyed short distances with a Brunton compass and tape measure from stakes located accurately by standard surveys (±10 to 20 m)
35,20 km,S3,63.476065,-146.384644,,156,1990-05-26,other,,latitude/longitude: Surveyed short distances with a Brunton compass and tape measure from stakes located accurately by standard surveys (±10 to 20 m)
35,20 km,S2,63.477859,-146.384603,,266,1990-05-26,other,,latitude/longitude: Surveyed short distances with a Brunton compass and tape measure from stakes located accurately by standard surveys (±10 to 20 m)
35,20 km,S1,63.479653,-146.384562,,451,1990-05-26,other,,latitude/longitude: Surveyed short distances with a Brunton compass and tape measure from stakes located accurately by standard surveys (±10 to 20 m)
35,20 km,20 km site,63.481447,-146.38452,1516,552,1990-05-26,other,1990-05-26,
35,20 km,N1,63.483241,-146.384479,,519,1990-05-26,other,,latitude/longitude: Surveyed short distances with a Brunton compass and tape measure from stakes located accurately by standard surveys (±10 to 20 m)
35,20 km,N2,63.485035,-146.384438,,502,1990-05-26,other,,latitude/longitude: Surveyed short distances with a Brunton compass and tape measure from stakes located accurately by standard surveys (±10 to 20 m)
35,Terminus,40km,63.46835,-146.000484,844,216,1987-04-22,other,1987-04-22,latitude/longitude: Positioned using map readings (about ±200 m)
35,Terminus,39km,63.463429,-146.017268,872,301,1987-04-22,other,1987-04-22,latitude/longitude: Positioned using map readings (about ±200 m)
35,Terminus,38km,63.458271,-146.033672,896,330,1987-04-22,other,1987-04-22,latitude/longitude: Positioned using map readings (about ±200 m)
35,Terminus,37km,63.453699,-146.050933,930,377,1987-04-22,other,1987-04-22,latitude/longitude: Positioned using map readings (about ±200 m)
35,Terminus,36km,63.452013,-146.070635,964,394,1987-04-22,other,1987-04-22,latitude/longitude: Positioned using map readings (about ±200 m)
35,Terminus,35km,63.451256,-146.083409,1004,415,1987-04-22,other,1987-04-22,latitude/longitude: Positioned using map readings (about ±200 m)
35,Terminus,33.5km,63.453884,-146.120126,1057,453,1987-04-22,other,1987-04-22,latitude/longitude: Positioned using map readings (about ±200 m)
35,Terminus,32km,63.457002,-146.149377,1109,411,1987-04-22,other,1987-04-22,latitude/longitude: Positioned using map readings (about ±200 m)
35,Point shots,4km,63.404042,-146.45755,2028,357,1979-03-27,other,1979-03-27,
35,Point shots,8km,63.434467,-146.499999,1894,644,1979-03-28,other,1979-03-28,
35,Point shots,14km,63.479502,-146.503099,1713,483,1978-03-18,other,1978-03-18,
35,Point shots,20km,63.481339,-146.384422,1513,578,1978-03-18,other,1978-03-18,
35,Point shots,26km,63.470217,-146.271496,1342,531,1978-03-20,other,1978-03-20,
